{
  "project_info": {
    "project_number": "917489628374",
    "firebase_url": "https://twooauthtest.firebaseio.com",
    "project_id": "twooauthtest",
    "storage_bucket": "twooauthtest.appspot.com"
  },
  "client": [
    {
      "client_info": {
        "mobilesdk_app_id": "1:917489628374:android:2caa9e84384753b9620577",
        "android_client_info": {
          "package_name": "com.lifeisthegamesas.WorldOfOportunity"
        }
      },
      "oauth_client": [
        {
          "client_id": "917489628374-7qhlcqslflfimg29v6j0n7e82thj5ag9.apps.googleusercontent.com",
          "client_type": 3
        }
      ],
      "api_key": [
        {
          "current_key": "AIzaSyALxjHawhz4NEWCJW8vOzaWNk_RK7z3yjo"
        }
      ],
      "services": {
        "appinvite_service": {
          "other_platform_oauth_client": [
            {
              "client_id": "917489628374-7qhlcqslflfimg29v6j0n7e82thj5ag9.apps.googleusercontent.com",
              "client_type": 3
            }
          ]
        }
      }
    }
  ],
  "configuration_version": "1"
}